{
    "defaultText": "Der tiefe Wald erstreckte sich weit, seine dunklen Bäume flüsterten im Wind.",
    "oneCharacter_Beginning": "",
    "oneCharacter_End": " spazierte durch den dunklen Wald, stets aufmerksam und auf der Suche nach Spuren.",
    "moreCharacters_Beginning": "",
    "moreCharacters_End": " wanderten durch den finsteren Wald."
}