{
    "Items": [
        {
			"myNecessaryCharactersOnAPage": [
                {
                    "nameOfThePage": "Meadow",
                    "necessaryCharactersByName": [
                        "Rotkaeppchen"
                    ],
                    "otherCharactersAllowed": false
                }
            ],
            "myNecessaryItemsWithCharacters": [],
            "pageText": "Rotkäppchen schlug die Augen auf und sah, wie die Sonnenstrahlen durch die Bäume tanzten und alles voller Blumen war. Es dachte: \"Wenn ich der Großmutter einen frischen Strauß mitbringe, wird sie sich freuen.\""
        },
        {
			"myNecessaryCharactersOnAPage": [
                {
                    "nameOfThePage": "Meadow",
                    "necessaryCharactersByName": [
                        "Rotkaeppchen",
						"Wolf"
                    ],
                    "otherCharactersAllowed": false
                }
            ],
            "myNecessaryItemsWithCharacters": [],
            "pageText": "Der Wolf dachte: \"Das junge, zarte Ding ist ein fetter Bissen, besser als die Alte. Ich muss beide schnappen.\" Er sprach zu Rotkäppchen: \"Sieh doch die schönen Blumen und hör die Vöglein singen. Warum schaust du dich nicht um? Es ist so schön hier im Wald.\""
        }
    ]
}
