{
    "defaultText": "Hinter dem Häuschen der Großmutter erstreckte sich ein kleiner, verwunschener Garten. Ein kleiner Pfad schlängelte sich durch das dichte Unterholz, das in den tiefen Wald führte.",
    "oneCharacter_Beginning": "Im Schatten der Bäume spazierte ",
    "oneCharacter_End": ".",
    "moreCharacters_Beginning": "Im Schatten der Bäume spazierten ",
    "moreCharacters_End": "."
}